simulation/qsim/MMU_v1.msim.vcd
$comment
	File created using the following command:
		vcd file MMU_v1.msim.vcd -direction
$end
$date
	Tue Sep 10 16:59:17 2019
$end
$version
	ModelSim Version 10.5b
$end
$timescale
	1ps
$end

$scope module fancyregister_vhd_vec_tst $end
$var wire 1 ! clk $end
$var wire 1 " clr $end
$var wire 1 # data [7] $end
$var wire 1 $ data [6] $end
$var wire 1 % data [5] $end
$var wire 1 & data [4] $end
$var wire 1 ' data [3] $end
$var wire 1 ( data [2] $end
$var wire 1 ) data [1] $end
$var wire 1 * data [0] $end
$var wire 1 + en $end
$var wire 1 , q [7] $end
$var wire 1 - q [6] $end
$var wire 1 . q [5] $end
$var wire 1 / q [4] $end
$var wire 1 0 q [3] $end
$var wire 1 1 q [2] $end
$var wire 1 2 q [1] $end
$var wire 1 3 q [0] $end

$scope module i1 $end
$var wire 1 4 gnd $end
$var wire 1 5 vcc $end
$var wire 1 6 unknown $end
$var wire 1 7 devoe $end
$var wire 1 8 devclrn $end
$var wire 1 9 devpor $end
$var wire 1 : ww_devoe $end
$var wire 1 ; ww_devclrn $end
$var wire 1 < ww_devpor $end
$var wire 1 = ww_en $end
$var wire 1 > ww_clk $end
$var wire 1 ? ww_clr $end
$var wire 1 @ ww_data [7] $end
$var wire 1 A ww_data [6] $end
$var wire 1 B ww_data [5] $end
$var wire 1 C ww_data [4] $end
$var wire 1 D ww_data [3] $end
$var wire 1 E ww_data [2] $end
$var wire 1 F ww_data [1] $end
$var wire 1 G ww_data [0] $end
$var wire 1 H ww_q [7] $end
$var wire 1 I ww_q [6] $end
$var wire 1 J ww_q [5] $end
$var wire 1 K ww_q [4] $end
$var wire 1 L ww_q [3] $end
$var wire 1 M ww_q [2] $end
$var wire 1 N ww_q [1] $end
$var wire 1 O ww_q [0] $end
$var wire 1 P \clr~inputclkctrl_INCLK_bus\ [3] $end
$var wire 1 Q \clr~inputclkctrl_INCLK_bus\ [2] $end
$var wire 1 R \clr~inputclkctrl_INCLK_bus\ [1] $end
$var wire 1 S \clr~inputclkctrl_INCLK_bus\ [0] $end
$var wire 1 T \clk~inputclkctrl_INCLK_bus\ [3] $end
$var wire 1 U \clk~inputclkctrl_INCLK_bus\ [2] $end
$var wire 1 V \clk~inputclkctrl_INCLK_bus\ [1] $end
$var wire 1 W \clk~inputclkctrl_INCLK_bus\ [0] $end
$var wire 1 X \q[0]~output_o\ $end
$var wire 1 Y \q[1]~output_o\ $end
$var wire 1 Z \q[2]~output_o\ $end
$var wire 1 [ \q[3]~output_o\ $end
$var wire 1 \ \q[4]~output_o\ $end
$var wire 1 ] \q[5]~output_o\ $end
$var wire 1 ^ \q[6]~output_o\ $end
$var wire 1 _ \q[7]~output_o\ $end
$var wire 1 ` \clk~input_o\ $end
$var wire 1 a \clk~inputclkctrl_outclk\ $end
$var wire 1 b \data[0]~input_o\ $end
$var wire 1 c \q[0]~reg0feeder_combout\ $end
$var wire 1 d \clr~input_o\ $end
$var wire 1 e \clr~inputclkctrl_outclk\ $end
$var wire 1 f \en~input_o\ $end
$var wire 1 g \q[0]~reg0_q\ $end
$var wire 1 h \data[1]~input_o\ $end
$var wire 1 i \q[1]~reg0_q\ $end
$var wire 1 j \data[2]~input_o\ $end
$var wire 1 k \q[2]~reg0feeder_combout\ $end
$var wire 1 l \q[2]~reg0_q\ $end
$var wire 1 m \data[3]~input_o\ $end
$var wire 1 n \q[3]~reg0_q\ $end
$var wire 1 o \data[4]~input_o\ $end
$var wire 1 p \q[4]~reg0feeder_combout\ $end
$var wire 1 q \q[4]~reg0_q\ $end
$var wire 1 r \data[5]~input_o\ $end
$var wire 1 s \q[5]~reg0_q\ $end
$var wire 1 t \data[6]~input_o\ $end
$var wire 1 u \q[6]~reg0feeder_combout\ $end
$var wire 1 v \q[6]~reg0_q\ $end
$var wire 1 w \data[7]~input_o\ $end
$var wire 1 x \q[7]~reg0feeder_combout\ $end
$var wire 1 y \q[7]~reg0_q\ $end
$var wire 1 z \ALT_INV_clr~inputclkctrl_outclk\ $end
$upscope $end
$upscope $end
$enddefinitions $end
#0
$dumpvars
0!
0"
1+
04
15
x6
17
18
19
1:
1;
1<
1=
0>
0?
0X
0Y
0Z
0[
0\
0]
0^
0_
x`
xa
xb
xc
xd
xe
xf
0g
xh
0i
xj
xk
0l
xm
0n
xo
xp
0q
xr
0s
xt
xu
0v
xw
xx
0y
xz
0#
0$
0%
0&
0'
0(
0)
0*
0@
0A
0B
0C
0D
0E
0F
0G
0H
0I
0J
0K
0L
0M
0N
0O
1T
1U
1V
xW
1P
1Q
1R
xS
0,
0-
0.
0/
00
01
02
03
$end
#746
1f
#781
0t
#782
0h
0o
#792
0b
0m
0r
#802
0w
#812
0j
#852
0d
0`
0S
0W
#1041
0e
0a
1z
#4166
0k
#4174
0c
#4179
0x
#4478
0u
#4487
0p
#12000
1!
1>
#12806
1`
1W
#13006
1a
#20000
0!
0>
#20852
0`
0W
#21041
0a
#40000
1*
1G
#40746
1b
#43917
1c
#52000
1!
1>
#52806
1`
1W
#53006
1a
#55137
1g
#59403
1X
1O
13
#60000
0!
0>
#60852
0`
0W
#61041
0a
#80000
0*
1)
0G
1F
#80736
1h
#80792
0b
#84174
0c
#92000
1!
1>
#92806
1`
1W
#93006
1a
#95137
1i
0g
#99330
0X
0O
03
#99514
1Y
1N
12
#100000
0!
0>
#100852
0`
0W
#101041
0a
#120000
1*
1G
#120746
1b
#123917
1c
#132000
1!
1>
#132806
1`
1W
#133006
1a
#135137
1g
#139403
1X
1O
13
#140000
0!
0>
#140852
0`
0W
#141041
0a
#160000
0*
0)
1(
0G
0F
1E
#160766
1j
#160782
0h
#160792
0b
#163904
1k
#164174
0c
#172000
1!
1>
#172806
1`
1W
#173006
1a
#175137
1l
0i
0g
#179330
0X
0O
03
#179418
0Y
0N
02
#179480
1Z
1M
11
#180000
0!
0>
#180852
0`
0W
#181041
0a
#200000
1*
1G
#200746
1b
#203917
1c
#212000
1!
1>
#212806
1`
1W
#213006
1a
#215137
1g
#219403
1X
1O
13
#220000
0!
0>
#220852
0`
0W
#221041
0a
#240000
0*
1)
0G
1F
#240736
1h
#240792
0b
#244174
0c
#252000
1!
1>
#252806
1`
1W
#253006
1a
#255137
1i
0g
#259330
0X
0O
03
#259514
1Y
1N
12
#260000
0!
0>
#260852
0`
0W
#261041
0a
#280000
1*
1G
#280746
1b
#283917
1c
#292000
1!
1>
#292806
1`
1W
#293006
1a
#295137
1g
#299403
1X
1O
13
#300000
0!
0>
#300852
0`
0W
#301041
0a
#320000
0*
0)
0(
1'
0G
0F
0E
1D
#320746
1m
#320782
0h
#320792
0b
#320812
0j
#324166
0k
#324174
0c
#332000
1!
1>
#332806
1`
1W
#333006
1a
#335137
1n
0l
0i
0g
#339330
0X
0O
03
#339405
0Z
0M
01
#339418
0Y
0N
02
#339457
1[
1L
10
#340000
0!
0>
#340852
0`
0W
#341041
0a
#360000
1*
1G
#360746
1b
#363917
1c
#372000
1!
1>
#372806
1`
1W
#373006
1a
#375137
1g
#379403
1X
1O
13
#380000
0!
0>
#380852
0`
0W
#381041
0a
#400000
0*
1)
0G
1F
#400736
1h
#400792
0b
#404174
0c
#412000
1!
1>
#412806
1`
1W
#413006
1a
#415137
1i
0g
#419330
0X
0O
03
#419514
1Y
1N
12
#420000
0!
0>
#420852
0`
0W
#421041
0a
#440000
1*
1G
#440746
1b
#443917
1c
#452000
1!
1>
#452806
1`
1W
#453006
1a
#455137
1g
#459403
1X
1O
13
#460000
0!
0>
#460852
0`
0W
#461041
0a
#480000
0*
0)
1(
0G
0F
1E
#480766
1j
#480782
0h
#480792
0b
#483904
1k
#484174
0c
#492000
1!
1>
#492806
1`
1W
#493006
1a
#495137
1l
0i
0g
#499330
0X
0O
03
#499418
0Y
0N
02
#499480
1Z
1M
11
#500000
0!
0>
#500852
0`
0W
#501041
0a
#520000
1*
1G
#520746
1b
#523917
1c
#532000
1!
1>
#532806
1`
1W
#533006
1a
#535137
1g
#539403
1X
1O
13
#540000
0!
0>
#540852
0`
0W
#541041
0a
#560000
0*
1)
0G
1F
#560736
1h
#560792
0b
#564174
0c
#572000
1!
1>
#572806
1`
1W
#573006
1a
#575137
1i
0g
#579330
0X
0O
03
#579514
1Y
1N
12
#580000
0!
0>
#580852
0`
0W
#581041
0a
#600000
1*
1G
#600746
1b
#603917
1c
#612000
1!
1>
#612806
1`
1W
#613006
1a
#615137
1g
#619403
1X
1O
13
#620000
0!
0>
#620852
0`
0W
#621041
0a
#640000
0*
0)
0(
0'
1&
0G
0F
0E
0D
1C
#640736
1o
#640782
0h
#640792
0m
0b
#640812
0j
#644166
0k
#644174
0c
#644265
1p
#652000
1!
1>
#652806
1`
1W
#653006
1a
#655137
1q
0n
0l
0i
0g
#659330
0X
0O
03
#659378
0[
0L
00
#659394
1\
1K
1/
#659405
0Z
0M
01
#659418
0Y
0N
02
#660000
0!
0>
#660852
0`
0W
#661041
0a
#680000
1*
1G
#680746
1b
#683917
1c
#692000
1!
1>
#692806
1`
1W
#693006
1a
#695137
1g
#699403
1X
1O
13
#700000
0!
0>
#700852
0`
0W
#701041
0a
#720000
0*
1)
0G
1F
#720736
1h
#720792
0b
#724174
0c
#732000
1!
1>
#732806
1`
1W
#733006
1a
#735137
1i
0g
#739330
0X
0O
03
#739514
1Y
1N
12
#740000
0!
0>
#740852
0`
0W
#741041
0a
#760000
1*
1G
#760746
1b
#763917
1c
#772000
1!
1>
#772806
1`
1W
#773006
1a
#775137
1g
#779403
1X
1O
13
#780000
0!
0>
#780852
0`
0W
#781041
0a
#800000
0*
0)
1(
0G
0F
1E
#800766
1j
#800782
0h
#800792
0b
#803904
1k
#804174
0c
#812000
1!
1>
#812806
1`
1W
#813006
1a
#815137
1l
0i
0g
#819330
0X
0O
03
#819418
0Y
0N
02
#819480
1Z
1M
11
#820000
0!
0>
#820852
0`
0W
#821041
0a
#840000
1*
1G
#840746
1b
#843917
1c
#852000
1!
1>
#852806
1`
1W
#853006
1a
#855137
1g
#859403
1X
1O
13
#860000
0!
0>
#860852
0`
0W
#861041
0a
#880000
0*
1)
0G
1F
#880736
1h
#880792
0b
#884174
0c
#892000
1!
1>
#892806
1`
1W
#893006
1a
#895137
1i
0g
#899330
0X
0O
03
#899514
1Y
1N
12
#900000
0!
0>
#900852
0`
0W
#901041
0a
#920000
1*
1G
#920746
1b
#923917
1c
#932000
1!
1>
#932806
1`
1W
#933006
1a
#935137
1g
#939403
1X
1O
13
#940000
0!
0>
#940852
0`
0W
#941041
0a
#960000
0*
0)
0(
1'
0G
0F
0E
1D
#960746
1m
#960782
0h
#960792
0b
#960812
0j
#964166
0k
#964174
0c
#972000
1!
1>
#972806
1`
1W
#973006
1a
#975137
1n
0l
0i
0g
#979330
0X
0O
03
#979405
0Z
0M
01
#979418
0Y
0N
02
#979457
1[
1L
10
#980000
0!
0>
#980852
0`
0W
#981041
0a
#1000000
1*
1G
#1000746
1b
#1003917
1c
#1012000
1!
1>
#1012806
1`
1W
#1013006
1a
#1015137
1g
#1019403
1X
1O
13
#1020000
0!
0>
#1020852
0`
0W
#1021041
0a
#1040000
0*
1)
0G
1F
#1040736
1h
#1040792
0b
#1044174
0c
#1052000
1!
1>
#1052806
1`
1W
#1053006
1a
#1055137
1i
0g
#1059330
0X
0O
03
#1059514
1Y
1N
12
#1060000
0!
0>
#1060852
0`
0W
#1061041
0a
#1080000
1*
1G
#1080746
1b
#1083917
1c
#1092000
1!
1>
#1092806
1`
1W
#1093006
1a
#1095137
1g
#1099403
1X
1O
13
#1100000
0!
0>
#1100852
0`
0W
#1101041
0a
#1120000
0*
0)
1(
0G
0F
1E
#1120766
1j
#1120782
0h
#1120792
0b
#1123904
1k
#1124174
0c
#1132000
1!
1>
#1132806
1`
1W
#1133006
1a
#1135137
1l
0i
0g
#1139330
0X
0O
03
#1139418
0Y
0N
02
#1139480
1Z
1M
11
#1140000
0!
0>
#1140852
0`
0W
#1141041
0a
#1160000
1*
1G
#1160746
1b
#1163917
1c
#1172000
1!
1>
#1172806
1`
1W
#1173006
1a
#1175137
1g
#1179403
1X
1O
13
#1180000
0!
0>
#1180852
0`
0W
#1181041
0a
#1200000
0*
1)
0G
1F
#1200736
1h
#1200792
0b
#1204174
0c
#1212000
1!
1>
#1212806
1`
1W
#1213006
1a
#1215137
1i
0g
#1219330
0X
0O
03
#1219514
1Y
1N
12
#1220000
0!
0>
#1220852
0`
0W
#1221041
0a
#1240000
1*
1G
#1240746
1b
#1243917
1c
#1252000
1!
1>
#1252806
1`
1W
#1253006
1a
#1255137
1g
#1259403
1X
1O
13
#1260000
0!
0>
#1260852
0`
0W
#1261041
0a
#1280000
0*
0)
0(
0'
0&
1%
0G
0F
0E
0D
0C
1B
#1280746
1r
#1280782
0o
0h
#1280792
0m
0b
#1280812
0j
#1284166
0k
#1284174
0c
#1284487
0p
#1292000
1!
1>
#1292806
1`
1W
#1293006
1a
#1295137
1s
0q
0n
0l
0i
0g
#1299319
0\
0K
0/
#1299323
1]
1J
1.
#1299330
0X
0O
03
#1299378
0[
0L
00
#1299405
0Z
0M
01
#1299418
0Y
0N
02
#1300000
0!
0>
#1300852
0`
0W
#1301041
0a
#1320000
1*
1G
#1320746
1b
#1323917
1c
#1332000
1!
1>
#1332806
1`
1W
#1333006
1a
#1335137
1g
#1339403
1X
1O
13
#1340000
0!
0>
#1340852
0`
0W
#1341041
0a
#1360000
0*
1)
0G
1F
#1360736
1h
#1360792
0b
#1364174
0c
#1372000
1!
1>
#1372806
1`
1W
#1373006
1a
#1375137
1i
0g
#1379330
0X
0O
03
#1379514
1Y
1N
12
#1380000
0!
0>
#1380852
0`
0W
#1381041
0a
#1400000
1*
1G
#1400746
1b
#1403917
1c
#1412000
1!
1>
#1412806
1`
1W
#1413006
1a
#1415137
1g
#1419403
1X
1O
13
#1420000
0!
0>
#1420852
0`
0W
#1421041
0a
#1440000
0*
0)
1(
0G
0F
1E
#1440766
1j
#1440782
0h
#1440792
0b
#1443904
1k
#1444174
0c
#1452000
1!
1>
#1452806
1`
1W
#1453006
1a
#1455137
1l
0i
0g
#1459330
0X
0O
03
#1459418
0Y
0N
02
#1459480
1Z
1M
11
#1460000
0!
0>
#1460852
0`
0W
#1461041
0a
#1480000
1*
1G
#1480746
1b
#1483917
1c
#1492000
1!
1>
#1492806
1`
1W
#1493006
1a
#1495137
1g
#1499403
1X
1O
13
#1500000
0!
0>
#1500852
0`
0W
#1501041
0a
#1520000
0*
1)
0G
1F
#1520736
1h
#1520792
0b
#1524174
0c
#1532000
1!
1>
#1532806
1`
1W
#1533006
1a
#1535137
1i
0g
#1539330
0X
0O
03
#1539514
1Y
1N
12
#1540000
0!
0>
#1540852
0`
0W
#1541041
0a
#1560000
1*
1G
#1560746
1b
#1563917
1c
#1572000
1!
1>
#1572806
1`
1W
#1573006
1a
#1575137
1g
#1579403
1X
1O
13
#1580000
0!
0>
#1580852
0`
0W
#1581041
0a
#1600000
0*
0)
0(
1'
0G
0F
0E
1D
#1600746
1m
#1600782
0h
#1600792
0b
#1600812
0j
#1604166
0k
#1604174
0c
#1612000
1!
1>
#1612806
1`
1W
#1613006
1a
#1615137
1n
0l
0i
0g
#1619330
0X
0O
03
#1619405
0Z
0M
01
#1619418
0Y
0N
02
#1619457
1[
1L
10
#1620000
0!
0>
#1620852
0`
0W
#1621041
0a
#1640000
1*
1G
#1640746
1b
#1643917
1c
#1652000
1!
1>
#1652806
1`
1W
#1653006
1a
#1655137
1g
#1659403
1X
1O
13
#1660000
0!
0>
#1660852
0`
0W
#1661041
0a
#1680000
0*
1)
0G
1F
#1680736
1h
#1680792
0b
#1684174
0c
#1692000
1!
1>
#1692806
1`
1W
#1693006
1a
#1695137
1i
0g
#1699330
0X
0O
03
#1699514
1Y
1N
12
#1700000
0!
0>
#1700852
0`
0W
#1701041
0a
#1720000
1*
1G
#1720746
1b
#1723917
1c
#1732000
1!
1>
#1732806
1`
1W
#1733006
1a
#1735137
1g
#1739403
1X
1O
13
#1740000
0!
0>
#1740852
0`
0W
#1741041
0a
#1760000
0*
0)
1(
0G
0F
1E
#1760766
1j
#1760782
0h
#1760792
0b
#1763904
1k
#1764174
0c
#1772000
1!
1>
#1772806
1`
1W
#1773006
1a
#1775137
1l
0i
0g
#1779330
0X
0O
03
#1779418
0Y
0N
02
#1779480
1Z
1M
11
#1780000
0!
0>
#1780852
0`
0W
#1781041
0a
#1800000
1*
1G
#1800746
1b
#1803917
1c
#1812000
1!
1>
#1812806
1`
1W
#1813006
1a
#1815137
1g
#1819403
1X
1O
13
#1820000
0!
0>
#1820852
0`
0W
#1821041
0a
#1840000
0*
1)
0G
1F
#1840736
1h
#1840792
0b
#1844174
0c
#1852000
1!
1>
#1852806
1`
1W
#1853006
1a
#1855137
1i
0g
#1859330
0X
0O
03
#1859514
1Y
1N
12
#1860000
0!
0>
#1860852
0`
0W
#1861041
0a
#1880000
1*
1G
#1880746
1b
#1883917
1c
#1892000
1!
1>
#1892806
1`
1W
#1893006
1a
#1895137
1g
#1899403
1X
1O
13
#1900000
0!
0>
#1900852
0`
0W
#1901041
0a
#1920000
0*
0)
0(
0'
1&
0G
0F
0E
0D
1C
#1920736
1o
#1920782
0h
#1920792
0m
0b
#1920812
0j
#1924166
0k
#1924174
0c
#1924265
1p
#1932000
1!
1>
#1932806
1`
1W
#1933006
1a
#1935137
1q
0n
0l
0i
0g
#1939330
0X
0O
03
#1939378
0[
0L
00
#1939394
1\
1K
1/
#1939405
0Z
0M
01
#1939418
0Y
0N
02
#1940000
0!
0>
#1940852
0`
0W
#1941041
0a
#1960000
1*
1G
#1960746
1b
#1963917
1c
#1972000
1!
1>
#1972806
1`
1W
#1973006
1a
#1975137
1g
#1979403
1X
1O
13
#1980000
0!
0>
#1980852
0`
0W
#1981041
0a
#1999000
0+
0=
#1999792
0f
#2000000
0*
1)
1"
0G
1F
1?
#2000736
1h
#2000792
0b
#2000806
1d
1S
#2001006
1e
0z
#2003132
0s
0q
0g
#2004174
0c
#2007230
0]
0J
0.
#2007314
0\
0K
0/
#2007325
0X
0O
03
#2012000
1!
1>
#2012806
1`
1W
#2013006
1a
#2020000
0!
0"
0>
0?
#2020852
0d
0`
0S
0W
#2021041
0e
0a
1z
#2040000
1*
1G
#2040746
1b
#2043917
1c
#2052000
1!
1>
#2052806
1`
1W
#2053006
1a
#2060000
0!
0>
#2060852
0`
0W
#2061041
0a
#2080000
0*
0)
1(
0G
0F
1E
#2080766
1j
#2080782
0h
#2080792
0b
#2083904
1k
#2084174
0c
#2092000
1!
1>
#2092806
1`
1W
#2093006
1a
