simulation/qsim/MMU_v1.msim.vcd
$comment
	File created using the following command:
		vcd file MMU_v1.msim.vcd -direction
$end
$date
	Wed Sep 11 16:50:34 2019
$end
$version
	ModelSim Version 10.5b
$end
$timescale
	1ps
$end

$scope module f2_vhd_vec_tst $end
$var wire 1 ! fi $end
$var wire 1 " out1 $end
$var wire 1 # out2 $end

$scope module i1 $end
$var wire 1 $ gnd $end
$var wire 1 % vcc $end
$var wire 1 & unknown $end
$var wire 1 ' devoe $end
$var wire 1 ( devclrn $end
$var wire 1 ) devpor $end
$var wire 1 * ww_devoe $end
$var wire 1 + ww_devclrn $end
$var wire 1 , ww_devpor $end
$var wire 1 - ww_fi $end
$var wire 1 . ww_out1 $end
$var wire 1 / ww_out2 $end
$var wire 1 0 \fi~inputclkctrl_INCLK_bus\ [3] $end
$var wire 1 1 \fi~inputclkctrl_INCLK_bus\ [2] $end
$var wire 1 2 \fi~inputclkctrl_INCLK_bus\ [1] $end
$var wire 1 3 \fi~inputclkctrl_INCLK_bus\ [0] $end
$var wire 1 4 \clk~clkctrl_INCLK_bus\ [3] $end
$var wire 1 5 \clk~clkctrl_INCLK_bus\ [2] $end
$var wire 1 6 \clk~clkctrl_INCLK_bus\ [1] $end
$var wire 1 7 \clk~clkctrl_INCLK_bus\ [0] $end
$var wire 1 8 \vclk~clkctrl_INCLK_bus\ [3] $end
$var wire 1 9 \vclk~clkctrl_INCLK_bus\ [2] $end
$var wire 1 : \vclk~clkctrl_INCLK_bus\ [1] $end
$var wire 1 ; \vclk~clkctrl_INCLK_bus\ [0] $end
$var wire 1 < \out1~output_o\ $end
$var wire 1 = \out2~output_o\ $end
$var wire 1 > \fi~input_o\ $end
$var wire 1 ? \fi~inputclkctrl_outclk\ $end
$var wire 1 @ \counter[1]~0_combout\ $end
$var wire 1 A \counter~2_combout\ $end
$var wire 1 B \counter~1_combout\ $end
$var wire 1 C \clk~0_combout\ $end
$var wire 1 D \clk~feeder_combout\ $end
$var wire 1 E \clk~q\ $end
$var wire 1 F \clk~clkctrl_outclk\ $end
$var wire 1 G \Add1~11\ $end
$var wire 1 H \Add1~12_combout\ $end
$var wire 1 I \Add1~13\ $end
$var wire 1 J \Add1~14_combout\ $end
$var wire 1 K \Add1~0_combout\ $end
$var wire 1 L \hcounter~1_combout\ $end
$var wire 1 M \Add1~1\ $end
$var wire 1 N \Add1~2_combout\ $end
$var wire 1 O \Add1~3\ $end
$var wire 1 P \Add1~4_combout\ $end
$var wire 1 Q \Equal2~0_combout\ $end
$var wire 1 R \Equal2~1_combout\ $end
$var wire 1 S \Add1~15\ $end
$var wire 1 T \Add1~16_combout\ $end
$var wire 1 U \hcounter~0_combout\ $end
$var wire 1 V \Add1~5\ $end
$var wire 1 W \Add1~6_combout\ $end
$var wire 1 X \hcounter~2_combout\ $end
$var wire 1 Y \Add1~7\ $end
$var wire 1 Z \Add1~8_combout\ $end
$var wire 1 [ \Add1~9\ $end
$var wire 1 \ \Add1~10_combout\ $end
$var wire 1 ] \hsync~0_combout\ $end
$var wire 1 ^ \hsync~1_combout\ $end
$var wire 1 _ \hsync~2_combout\ $end
$var wire 1 ` \hsync~q\ $end
$var wire 1 a \vclk~0_combout\ $end
$var wire 1 b \vclk~feeder_combout\ $end
$var wire 1 c \vclk~q\ $end
$var wire 1 d \vclk~clkctrl_outclk\ $end
$var wire 1 e \Add2~3\ $end
$var wire 1 f \Add2~4_combout\ $end
$var wire 1 g \vcounter~2_combout\ $end
$var wire 1 h \Add2~5\ $end
$var wire 1 i \Add2~6_combout\ $end
$var wire 1 j \Add2~7\ $end
$var wire 1 k \Add2~8_combout\ $end
$var wire 1 l \vcounter~5_combout\ $end
$var wire 1 m \Add2~9\ $end
$var wire 1 n \Add2~10_combout\ $end
$var wire 1 o \vcounter~1_combout\ $end
$var wire 1 p \Equal7~1_combout\ $end
$var wire 1 q \Add2~11\ $end
$var wire 1 r \Add2~12_combout\ $end
$var wire 1 s \vcounter~4_combout\ $end
$var wire 1 t \Equal7~0_combout\ $end
$var wire 1 u \Add2~0_combout\ $end
$var wire 1 v \vcounter~3_combout\ $end
$var wire 1 w \Add2~1\ $end
$var wire 1 x \Add2~2_combout\ $end
$var wire 1 y \Add2~13\ $end
$var wire 1 z \Add2~14_combout\ $end
$var wire 1 { \Add2~15\ $end
$var wire 1 | \Add2~16_combout\ $end
$var wire 1 } \Equal8~0_combout\ $end
$var wire 1 ~ \Add2~17\ $end
$var wire 1 !! \Add2~18_combout\ $end
$var wire 1 "! \vcounter~0_combout\ $end
$var wire 1 #! \vdisplay~1_combout\ $end
$var wire 1 $! \vdisplay~0_combout\ $end
$var wire 1 %! \vdisplay~2_combout\ $end
$var wire 1 &! \vdisplay~q\ $end
$var wire 1 '! \Equal3~0_combout\ $end
$var wire 1 (! \hdisplay~0_combout\ $end
$var wire 1 )! \hdisplay~1_combout\ $end
$var wire 1 *! \hdisplay~q\ $end
$var wire 1 +! \display_pixel~0_combout\ $end
$var wire 1 ,! counter [2] $end
$var wire 1 -! counter [1] $end
$var wire 1 .! counter [0] $end
$var wire 1 /! vcounter [9] $end
$var wire 1 0! vcounter [8] $end
$var wire 1 1! vcounter [7] $end
$var wire 1 2! vcounter [6] $end
$var wire 1 3! vcounter [5] $end
$var wire 1 4! vcounter [4] $end
$var wire 1 5! vcounter [3] $end
$var wire 1 6! vcounter [2] $end
$var wire 1 7! vcounter [1] $end
$var wire 1 8! vcounter [0] $end
$var wire 1 9! hcounter [8] $end
$var wire 1 :! hcounter [7] $end
$var wire 1 ;! hcounter [6] $end
$var wire 1 <! hcounter [5] $end
$var wire 1 =! hcounter [4] $end
$var wire 1 >! hcounter [3] $end
$var wire 1 ?! hcounter [2] $end
$var wire 1 @! hcounter [1] $end
$var wire 1 A! hcounter [0] $end
$upscope $end
$upscope $end
$enddefinitions $end
#0
$dumpvars
0!
0"
0#
0$
1%
x&
1'
1(
1)
1*
1+
1,
0-
0.
0/
0<
0=
x>
x?
x@
xA
xB
xC
xD
0E
xF
xG
xH
xI
xJ
xK
xL
xM
xN
xO
xP
xQ
xR
xS
xT
xU
xV
xW
xX
xY
xZ
x[
x\
x]
x^
x_
0`
xa
xb
0c
xd
xe
xf
xg
xh
xi
xj
xk
xl
xm
xn
xo
xp
xq
xr
xs
xt
xu
xv
xw
xx
xy
xz
x{
x|
x}
x~
x!!
x"!
x#!
x$!
x%!
0&!
x'!
x(!
x)!
0*!
x+!
0,!
0-!
0.!
0/!
00!
01!
02!
03!
04!
05!
06!
07!
08!
09!
0:!
0;!
0<!
0=!
0>!
0?!
0@!
0A!
10
11
12
x3
14
15
16
07
18
19
1:
0;
$end
#548
0^
#578
0'!
#641
0(!
#701
0t
#702
0+!
#738
0p
#845
0w
#846
0~
#852
0>
03
#857
0[
#858
0V
#859
0y
#861
0m
#873
0M
#889
0I
#890
1}
1B
#896
1u
#911
0]
#916
1Q
#918
1e
#928
1K
#930
1G
#931
0A
1Y
#932
1{
#934
1q
#935
0@
#946
1O
#962
1S
#991
0h
#1002
1j
#1015
0F
#1041
0?
#1052
0#!
#1344
1L
#1356
1R
#1422
0x
#1423
0!!
#1434
0\
#1435
0W
#1436
0z
#1438
0n
#1450
0N
#1466
0J
#1495
0f
#1507
0H
#1508
0Z
#1509
0|
#1511
0r
#1523
0P
#1539
0T
#1562
0_
#1568
0i
#1579
0k
#1699
1$!
#1707
1v
#1838
0"!
#1847
0X
#1851
0o
#1966
0d
#1991
0l
#1997
0a
#2061
0g
#2092
0s
#2114
1%!
#2115
0U
#2361
1)!
#3224
0C
#3674
0b
#4594
0D
#4634
x=
x/
x#
#5069
0=
0/
0#
#10000
1!
1-
#10806
1>
13
#11006
1?
#13142
1.!
#13624
0B
#13970
1@
#20000
0!
0-
#20852
0>
03
#21041
0?
#30000
1!
1-
#30806
1>
13
#31006
1?
#33142
0.!
1-!
#33604
1B
#33624
0@
#34022
1C
#34067
1@
#35504
1D
#40000
0!
0-
#40852
0>
03
#41041
0?
#50000
1!
1-
#50806
1>
13
#51006
1?
#53142
1E
1.!
17
#53624
0B
#53940
0C
#53957
1A
#53980
0@
#54164
1F
#55310
0D
#56266
1*!
#56267
1A!
#56563
1C
#56749
0Q
#57082
1(!
#57110
0K
#57184
0R
#57190
1M
#57522
0L
#57797
1N
#58045
1D
#60000
0!
0-
#60852
0>
03
#61041
0?
#70000
1!
1-
#70806
1>
13
#71006
1?
#73142
0.!
1,!
0-!
#73604
1@
1B
#73624
0A
#74036
0C
#74053
1A
#74077
0@
#74231
0B
#74245
0A
#75406
0D
#80000
0!
0-
#80852
0>
03
#81041
0?
#90000
1!
1-
#90806
1>
13
#91006
1?
#93142
0E
0,!
07
#93851
1C
#94032
1B
#94157
0F
#95333
1D
#96366
0C
#97736
0D
#100000
0!
0-
#100852
0>
03
#101041
0?
#110000
1!
1-
#110806
1>
13
#111006
1?
#113142
1.!
#113624
0B
#113970
1@
#120000
0!
0-
#120852
0>
03
#121041
0?
#130000
1!
1-
#130806
1>
13
#131006
1?
#133142
0.!
1-!
#133604
1B
#133624
0@
#134022
1C
#134067
1@
#135504
1D
#140000
0!
0-
#140852
0>
03
#141041
0?
#150000
1!
1-
#150806
1>
13
#151006
1?
#153142
1E
1.!
17
#153624
0B
#153940
0C
#153957
1A
#153980
0@
#154164
1F
#155310
0D
#156267
1@!
0A!
#156563
1C
#157054
0O
#157119
0N
#157140
0M
#157195
1K
#157213
1O
#157611
1L
#157661
1P
#157747
1N
#157790
0P
#158045
1D
#160000
0!
0-
#160852
0>
03
#161041
0?
#170000
1!
1-
#170806
1>
13
#171006
1?
#173142
0.!
1,!
0-!
#173604
1@
1B
#173624
0A
#174036
0C
#174053
1A
#174077
0@
#174231
0B
#174245
0A
#175406
0D
#180000
0!
0-
#180852
0>
03
#181041
0?
#190000
1!
1-
#190806
1>
13
#191006
1?
#193142
0E
0,!
07
#193851
1C
#194032
1B
#194157
0F
#195333
1D
#196366
0C
#197736
0D
#200000
0!
0-
#200852
0>
03
#201041
0?
#210000
1!
1-
#210806
1>
13
#211006
1?
#213142
1.!
#213624
0B
#213970
1@
#220000
0!
0-
#220852
0>
03
#221041
0?
#230000
1!
1-
#230806
1>
13
#231006
1?
#233142
0.!
1-!
#233604
1B
#233624
0@
#234022
1C
#234067
1@
#235504
1D
#240000
0!
0-
#240852
0>
03
#241041
0?
#250000
1!
1-
#250806
1>
13
#251006
1?
#253142
1E
1.!
17
#253624
0B
#253940
0C
#253957
1A
#253980
0@
#254164
1F
#255310
0D
#256267
1A!
#256563
1C
#257110
0K
#257190
1M
#257263
0O
#257522
0L
#257767
0N
#257870
1P
#258045
1D
#260000
0!
0-
#260852
0>
03
#261041
0?
#270000
1!
1-
#270806
1>
13
#271006
1?
#273142
0.!
1,!
0-!
#273604
1@
1B
#273624
0A
#274036
0C
#274053
1A
#274077
0@
#274231
0B
#274245
0A
#275406
0D
#280000
0!
0-
#280852
0>
03
#281041
0?
#290000
1!
1-
#290806
1>
13
#291006
1?
#293142
0E
0,!
07
#293851
1C
#294032
1B
#294157
0F
#295333
1D
#296366
0C
#297736
0D
#300000
0!
0-
#300852
0>
03
#301041
0?
#310000
1!
1-
#310806
1>
13
#311006
1?
#313142
1.!
#313624
0B
#313970
1@
#320000
0!
0-
#320852
0>
03
#321041
0?
#330000
1!
1-
#330806
1>
13
#331006
1?
#333142
0.!
1-!
#333604
1B
#333624
0@
#334022
1C
#334067
1@
#335504
1D
#340000
0!
0-
#340852
0>
03
#341041
0?
#350000
1!
1-
#350806
1>
13
#351006
1?
#353142
1E
1.!
17
#353624
0B
#353940
0C
#353957
1A
#353980
0@
#354164
1F
#355310
0D
#356267
1?!
0@!
0A!
#356563
1C
#357090
0P
#357140
0M
#357182
1V
#357188
1N
#357195
1K
#357213
1O
#357286
0V
#357611
1L
#357717
0N
#357789
1W
#357820
1P
#357863
0W
#358045
1D
#358205
1X
#358275
0X
#360000
0!
0-
#360852
0>
03
#361041
0?
#370000
1!
1-
#370806
1>
13
#371006
1?
#373142
0.!
1,!
0-!
#373604
1@
1B
#373624
0A
#374036
0C
#374053
1A
#374077
0@
#374231
0B
#374245
0A
#375406
0D
#380000
0!
0-
#380852
0>
03
#381041
0?
#390000
1!
1-
#390806
1>
13
#391006
1?
#393142
0E
0,!
07
#393851
1C
#394032
1B
#394157
0F
#395333
1D
#396366
0C
#397736
0D
#400000
0!
0-
#400852
0>
03
#401041
0?
#410000
1!
1-
#410806
1>
13
#411006
1?
#413142
1.!
#413624
0B
#413970
1@
#420000
0!
0-
#420852
0>
03
#421041
0?
#430000
1!
1-
#430806
1>
13
#431006
1?
#433142
0.!
1-!
#433604
1B
#433624
0@
#434022
1C
#434067
1@
#435504
1D
#440000
0!
0-
#440852
0>
03
#441041
0?
#450000
1!
1-
#450806
1>
13
#451006
1?
#453142
1E
1.!
17
#453624
0B
#453940
0C
#453957
1A
#453980
0@
#454164
1F
#455310
0D
#456267
1A!
#456563
1C
#457110
0K
#457190
1M
#457522
0L
#457797
1N
#458045
1D
#460000
0!
0-
#460852
0>
03
#461041
0?
#470000
1!
1-
#470806
1>
13
#471006
1?
#473142
0.!
1,!
0-!
#473604
1@
1B
#473624
0A
#474036
0C
#474053
1A
#474077
0@
#474231
0B
#474245
0A
#475406
0D
#480000
0!
0-
#480852
0>
03
#481041
0?
#490000
1!
1-
#490806
1>
13
#491006
1?
#493142
0E
0,!
07
#493851
1C
#494032
1B
#494157
0F
#495333
1D
#496366
0C
#497736
0D
#500000
0!
0-
#500852
0>
03
#501041
0?
#510000
1!
1-
#510806
1>
13
#511006
1?
#513142
1.!
#513624
0B
#513970
1@
#520000
0!
0-
#520852
0>
03
#521041
0?
#530000
1!
1-
#530806
1>
13
#531006
1?
#533142
0.!
1-!
#533604
1B
#533624
0@
#534022
1C
#534067
1@
#535504
1D
#540000
0!
0-
#540852
0>
03
#541041
0?
#550000
1!
1-
#550806
1>
13
#551006
1?
#553142
1E
1.!
17
#553624
0B
#553940
0C
#553957
1A
#553980
0@
#554164
1F
#555310
0D
#556267
1@!
0A!
#556563
1C
#557054
0O
#557119
0N
#557127
1V
#557140
0M
#557195
1K
#557213
1O
#557286
0V
#557611
1L
#557631
0P
#557734
1W
#557747
1N
#557820
1P
#557863
0W
#558045
1D
#558150
1X
#558275
0X
#560000
0!
0-
#560852
0>
03
#561041
0?
#570000
1!
1-
#570806
1>
13
#571006
1?
#573142
0.!
1,!
0-!
#573604
1@
1B
#573624
0A
#574036
0C
#574053
1A
#574077
0@
#574231
0B
#574245
0A
#575406
0D
#580000
0!
0-
#580852
0>
03
#581041
0?
#590000
1!
1-
#590806
1>
13
#591006
1?
#593142
0E
0,!
07
#593851
1C
#594032
1B
#594157
0F
#595333
1D
#596366
0C
#597736
0D
#600000
0!
0-
#600852
0>
03
#601041
0?
#610000
1!
1-
#610806
1>
13
#611006
1?
#613142
1.!
#613624
0B
#613970
1@
#620000
0!
0-
#620852
0>
03
#621041
0?
#630000
1!
1-
#630806
1>
13
#631006
1?
#633142
0.!
1-!
#633604
1B
#633624
0@
#634022
1C
#634067
1@
#635504
1D
#640000
0!
0-
#640852
0>
03
#641041
0?
#650000
1!
1-
#650806
1>
13
#651006
1?
#653142
1E
1.!
17
#653624
0B
#653940
0C
#653957
1A
#653980
0@
#654164
1F
#655310
0D
#656267
1A!
#656563
1C
#657110
0K
#657190
1M
#657263
0O
#657336
1V
#657522
0L
#657767
0N
#657840
0P
#657943
1W
#658045
1D
#658359
1X
#660000
0!
0-
#660852
0>
03
#661041
0?
#670000
1!
1-
#670806
1>
13
#671006
1?
#673142
0.!
1,!
0-!
#673604
1@
1B
#673624
0A
#674036
0C
#674053
1A
#674077
0@
#674231
0B
#674245
0A
#675406
0D
#680000
0!
0-
#680852
0>
03
#681041
0?
#690000
1!
1-
#690806
1>
13
#691006
1?
#693142
0E
0,!
07
#693851
1C
#694032
1B
#694157
0F
#695333
1D
#696366
0C
#697736
0D
#700000
0!
0-
#700852
0>
03
#701041
0?
#710000
1!
1-
#710806
1>
13
#711006
1?
#713142
1.!
#713624
0B
#713970
1@
#720000
0!
0-
#720852
0>
03
#721041
0?
#730000
1!
1-
#730806
1>
13
#731006
1?
#733142
0.!
1-!
#733604
1B
#733624
0@
#734022
1C
#734067
1@
#735504
1D
#740000
0!
0-
#740852
0>
03
#741041
0?
#750000
1!
1-
#750806
1>
13
#751006
1?
#753142
1E
1.!
17
#753624
0B
#753940
0C
#753957
1A
#753980
0@
#754164
1F
#755310
0D
#756267
1>!
0?!
0@!
0A!
#756563
1C
#757073
0Y
#757125
0V
#757139
0W
#757140
0M
#757176
1P
#757183
1Q
#757188
1N
#757195
1K
#757198
1Y
#757213
1O
#757551
0X
#757611
1L
#757623
1R
#757680
1Z
#757717
0N
#757732
1W
#757775
0Z
#757790
0P
#758045
1D
#758148
1X
#760000
0!
0-
#760852
0>
03
#761041
0?
#770000
1!
1-
#770806
1>
13
#771006
1?
#773142
0.!
1,!
0-!
#773604
1@
1B
#773624
0A
#774036
0C
#774053
1A
#774077
0@
#774231
0B
#774245
0A
#775406
0D
#780000
0!
0-
#780852
0>
03
#781041
0?
#790000
1!
1-
#790806
1>
13
#791006
1?
#793142
0E
0,!
07
#793851
1C
#794032
1B
#794157
0F
#795333
1D
#796366
0C
#797736
0D
#800000
0!
0-
#800852
0>
03
#801041
0?
#810000
1!
1-
#810806
1>
13
#811006
1?
#813142
1.!
#813624
0B
#813970
1@
#820000
0!
0-
#820852
0>
03
#821041
0?
#830000
1!
1-
#830806
1>
13
#831006
1?
#833142
0.!
1-!
#833604
1B
#833624
0@
#834022
1C
#834067
1@
#835504
1D
#840000
0!
0-
#840852
0>
03
#841041
0?
#850000
1!
1-
#850806
1>
13
#851006
1?
#853142
1E
1.!
17
#853624
0B
#853940
0C
#853957
1A
#853980
0@
#854164
1F
#855310
0D
#856267
1A!
#856563
1C
#856749
0Q
#857110
0K
#857184
0R
#857190
1M
#857522
0L
#857797
1N
#858045
1D
#860000
0!
0-
#860852
0>
03
#861041
0?
#870000
1!
1-
#870806
1>
13
#871006
1?
#873142
0.!
1,!
0-!
#873604
1@
1B
#873624
0A
#874036
0C
#874053
1A
#874077
0@
#874231
0B
#874245
0A
#875406
0D
#880000
0!
0-
#880852
0>
03
#881041
0?
#890000
1!
1-
#890806
1>
13
#891006
1?
#893142
0E
0,!
07
#893851
1C
#894032
1B
#894157
0F
#895333
1D
#896366
0C
#897736
0D
#900000
0!
0-
#900852
0>
03
#901041
0?
#910000
1!
1-
#910806
1>
13
#911006
1?
#913142
1.!
#913624
0B
#913970
1@
#920000
0!
0-
#920852
0>
03
#921041
0?
#930000
1!
1-
#930806
1>
13
#931006
1?
#933142
0.!
1-!
#933604
1B
#933624
0@
#934022
1C
#934067
1@
#935504
1D
#940000
0!
0-
#940852
0>
03
#941041
0?
#950000
1!
1-
#950806
1>
13
#951006
1?
#953142
1E
1.!
17
#953624
0B
#953940
0C
#953957
1A
#953980
0@
#954164
1F
#955310
0D
#956267
1@!
0A!
#956563
1C
#957054
0O
#957119
0N
#957140
0M
#957195
1K
#957213
1O
#957611
1L
#957661
1P
#957747
1N
#957790
0P
#958045
1D
#960000
0!
0-
#960852
0>
03
#961041
0?
#970000
1!
1-
#970806
1>
13
#971006
1?
#973142
0.!
1,!
0-!
#973604
1@
1B
#973624
0A
#974036
0C
#974053
1A
#974077
0@
#974231
0B
#974245
0A
#975406
0D
#980000
0!
0-
#980852
0>
03
#981041
0?
#990000
1!
1-
#990806
1>
13
#991006
1?
#993142
0E
0,!
07
#993851
1C
#994032
1B
#994157
0F
#995333
1D
#996366
0C
#997736
0D
#1000000
0!
0-
#1000852
0>
03
#1001041
0?
#1010000
1!
1-
#1010806
1>
13
#1011006
1?
#1013142
1.!
#1013624
0B
#1013970
1@
#1020000
0!
0-
#1020852
0>
03
#1021041
0?
#1030000
1!
1-
#1030806
1>
13
#1031006
1?
#1033142
0.!
1-!
#1033604
1B
#1033624
0@
#1034022
1C
#1034067
1@
#1035504
1D
#1040000
0!
0-
#1040852
0>
03
#1041041
0?
#1050000
1!
1-
#1050806
1>
13
#1051006
1?
#1053142
1E
1.!
17
#1053624
0B
#1053940
0C
#1053957
1A
#1053980
0@
#1054164
1F
#1055310
0D
#1056267
1A!
#1056563
1C
#1057110
0K
#1057190
1M
#1057263
0O
#1057522
0L
#1057767
0N
#1057870
1P
#1058045
1D
#1060000
0!
0-
#1060852
0>
03
#1061041
0?
#1070000
1!
1-
#1070806
1>
13
#1071006
1?
#1073142
0.!
1,!
0-!
#1073604
1@
1B
#1073624
0A
#1074036
0C
#1074053
1A
#1074077
0@
#1074231
0B
#1074245
0A
#1075406
0D
#1080000
0!
0-
#1080852
0>
03
#1081041
0?
#1090000
1!
1-
#1090806
1>
13
#1091006
1?
#1093142
0E
0,!
07
#1093851
1C
#1094032
1B
#1094157
0F
#1095333
1D
#1096366
0C
#1097736
0D
#1100000
0!
0-
#1100852
0>
03
#1101041
0?
#1110000
1!
1-
#1110806
1>
13
#1111006
1?
#1113142
1.!
#1113624
0B
#1113970
1@
#1120000
0!
0-
#1120852
0>
03
#1121041
0?
#1130000
1!
1-
#1130806
1>
13
#1131006
1?
#1133142
0.!
1-!
#1133604
1B
#1133624
0@
#1134022
1C
#1134067
1@
#1135504
1D
#1140000
0!
0-
#1140852
0>
03
#1141041
0?
#1150000
1!
1-
#1150806
1>
13
#1151006
1?
#1153142
1E
1.!
17
#1153624
0B
#1153940
0C
#1153957
1A
#1153980
0@
#1154164
1F
#1155310
0D
#1156267
1?!
0@!
0A!
#1156563
1C
#1157090
0P
#1157140
0M
#1157182
1V
#1157188
1N
#1157195
1K
#1157213
1O
#1157255
0Y
#1157286
0V
#1157359
1Y
#1157611
1L
#1157717
0N
#1157759
0W
#1157820
1P
#1157862
1Z
#1157893
1W
#1157936
0Z
#1158045
1D
#1158171
0X
#1158309
1X
#1160000
0!
0-
#1160852
0>
03
#1161041
0?
#1170000
1!
1-
#1170806
1>
13
#1171006
1?
#1173142
0.!
1,!
0-!
#1173604
1@
1B
#1173624
0A
#1174036
0C
#1174053
1A
#1174077
0@
#1174231
0B
#1174245
0A
#1175406
0D
#1180000
0!
0-
#1180852
0>
03
#1181041
0?
#1190000
1!
1-
#1190806
1>
13
#1191006
1?
#1193142
0E
0,!
07
#1193851
1C
#1194032
1B
#1194157
0F
#1195333
1D
#1196366
0C
#1197736
0D
#1200000
0!
0-
#1200852
0>
03
#1201041
0?
#1210000
1!
1-
#1210806
1>
13
#1211006
1?
#1213142
1.!
#1213624
0B
#1213970
1@
#1220000
0!
0-
#1220852
0>
03
#1221041
0?
#1230000
1!
1-
#1230806
1>
13
#1231006
1?
#1233142
0.!
1-!
#1233604
1B
#1233624
0@
#1234022
1C
#1234067
1@
#1235504
1D
#1240000
0!
0-
#1240852
0>
03
#1241041
0?
#1250000
1!
1-
#1250806
1>
13
#1251006
1?
#1253142
1E
1.!
17
#1253624
0B
#1253940
0C
#1253957
1A
#1253980
0@
#1254164
1F
#1255310
0D
#1256267
1A!
#1256563
1C
#1257110
0K
#1257190
1M
#1257522
0L
#1257797
1N
#1258045
1D
#1260000
0!
0-
#1260852
0>
03
#1261041
0?
#1270000
1!
1-
#1270806
1>
13
#1271006
1?
#1273142
0.!
1,!
0-!
#1273604
1@
1B
#1273624
0A
#1274036
0C
#1274053
1A
#1274077
0@
#1274231
0B
#1274245
0A
#1275406
0D
#1280000
0!
0-
#1280852
0>
03
#1281041
0?
#1290000
1!
1-
#1290806
1>
13
#1291006
1?
#1293142
0E
0,!
07
#1293851
1C
#1294032
1B
#1294157
0F
#1295333
1D
#1296366
0C
#1297736
0D
#1300000
0!
0-
#1300852
0>
03
#1301041
0?
#1310000
1!
1-
#1310806
1>
13
#1311006
1?
#1313142
1.!
#1313624
0B
#1313970
1@
#1320000
0!
0-
#1320852
0>
03
#1321041
0?
#1330000
1!
1-
#1330806
1>
13
#1331006
1?
#1333142
0.!
1-!
#1333604
1B
#1333624
0@
#1334022
1C
#1334067
1@
#1335504
1D
#1340000
0!
0-
#1340852
0>
03
#1341041
0?
#1350000
1!
1-
#1350806
1>
13
#1351006
1?
#1353142
1E
1.!
17
#1353624
0B
#1353940
0C
#1353957
1A
#1353980
0@
#1354164
1F
#1355310
0D
#1356267
1@!
0A!
#1356563
1C
#1357054
0O
#1357119
0N
#1357127
1V
#1357140
0M
#1357195
1K
#1357200
0Y
#1357213
1O
#1357286
0V
#1357359
1Y
#1357611
1L
#1357631
0P
#1357704
0W
#1357747
1N
#1357807
1Z
#1357820
1P
#1357893
1W
#1357936
0Z
#1358045
1D
#1358116
0X
#1358309
1X
#1360000
0!
0-
#1360852
0>
03
#1361041
0?
#1370000
1!
1-
#1370806
1>
13
#1371006
1?
#1373142
0.!
1,!
0-!
#1373604
1@
1B
#1373624
0A
#1374036
0C
#1374053
1A
#1374077
0@
#1374231
0B
#1374245
0A
#1375406
0D
#1380000
0!
0-
#1380852
0>
03
#1381041
0?
#1390000
1!
1-
#1390806
1>
13
#1391006
1?
#1393142
0E
0,!
07
#1393851
1C
#1394032
1B
#1394157
0F
#1395333
1D
#1396366
0C
#1397736
0D
#1400000
0!
0-
#1400852
0>
03
#1401041
0?
#1410000
1!
1-
#1410806
1>
13
#1411006
1?
#1413142
1.!
#1413624
0B
#1413970
1@
#1420000
0!
0-
#1420852
0>
03
#1421041
0?
#1430000
1!
1-
#1430806
1>
13
#1431006
1?
#1433142
0.!
1-!
#1433604
1B
#1433624
0@
#1434022
1C
#1434067
1@
#1435504
1D
#1440000
0!
0-
#1440852
0>
03
#1441041
0?
#1450000
1!
1-
#1450806
1>
13
#1451006
1?
#1453142
1E
1.!
17
#1453624
0B
#1453940
0C
#1453957
1A
#1453980
0@
#1454164
1F
#1455310
0D
#1456267
1A!
#1456563
1C
#1457110
0K
#1457190
1M
#1457263
0O
#1457336
1V
#1457409
0Y
#1457522
0L
#1457767
0N
#1457840
0P
#1457913
0W
#1458016
1Z
#1458045
1D
#1458325
0X
#1460000
0!
0-
#1460852
0>
03
#1461041
0?
#1470000
1!
1-
#1470806
1>
13
#1471006
1?
#1473142
0.!
1,!
0-!
#1473604
1@
1B
#1473624
0A
#1474036
0C
#1474053
1A
#1474077
0@
#1474231
0B
#1474245
0A
#1475406
0D
#1480000
0!
0-
#1480852
0>
03
#1481041
0?
#1490000
1!
1-
#1490806
1>
13
#1491006
1?
#1493142
0E
0,!
07
#1493851
1C
#1494032
1B
#1494157
0F
#1495333
1D
#1496366
0C
#1497736
0D
#1500000
0!
0-
#1500852
0>
03
#1501041
0?
#1510000
1!
1-
#1510806
1>
13
#1511006
1?
#1513142
1.!
#1513624
0B
#1513970
1@
#1520000
0!
0-
#1520852
0>
03
#1521041
0?
#1530000
1!
1-
#1530806
1>
13
#1531006
1?
#1533142
0.!
1-!
#1533604
1B
#1533624
0@
#1534022
1C
#1534067
1@
#1535504
1D
#1540000
0!
0-
#1540852
0>
03
#1541041
0?
#1550000
1!
1-
#1550806
1>
13
#1551006
1?
#1553142
1E
1.!
17
#1553624
0B
#1553940
0C
#1553957
1A
#1553980
0@
#1554164
1F
#1555310
0D
#1556267
1=!
0>!
0?!
0@!
0A!
#1556563
1C
#1557090
0Z
#1557125
0V
#1557140
0M
#1557176
1P
#1557182
1[
#1557188
1N
#1557195
1K
#1557198
1Y
#1557201
1W
#1557213
1O
#1557271
0[
#1557387
1^
#1557611
1L
#1557617
1X
#1557702
0W
#1557717
0N
#1557789
1\
#1557790
0P
#1557805
1Z
#1557848
0\
#1558045
1D
#1558114
0X
#1560000
0!
0-
#1560852
0>
03
#1561041
0?
#1570000
1!
1-
#1570806
1>
13
#1571006
1?
#1573142
0.!
1,!
0-!
#1573604
1@
1B
#1573624
0A
#1574036
0C
#1574053
1A
#1574077
0@
#1574231
0B
#1574245
0A
#1575406
0D
#1580000
0!
0-
#1580852
0>
03
#1581041
0?
#1590000
1!
1-
#1590806
1>
13
#1591006
1?
#1593142
0E
0,!
07
#1593851
1C
#1594032
1B
#1594157
0F
#1595333
1D
#1596366
0C
#1597736
0D
#1600000
0!
0-
#1600852
0>
03
#1601041
0?
#1610000
1!
1-
#1610806
1>
13
#1611006
1?
#1613142
1.!
#1613624
0B
#1613970
1@
#1620000
0!
0-
#1620852
0>
03
#1621041
0?
#1630000
1!
1-
#1630806
1>
13
#1631006
1?
#1633142
0.!
1-!
#1633604
1B
#1633624
0@
#1634022
1C
#1634067
1@
#1635504
1D
#1640000
0!
0-
#1640852
0>
03
#1641041
0?
#1650000
1!
1-
#1650806
1>
13
#1651006
1?
#1653142
1E
1.!
17
#1653624
0B
#1653940
0C
#1653957
1A
#1653980
0@
#1654164
1F
#1655310
0D
#1656267
1A!
#1656563
1C
#1657110
0K
#1657190
1M
#1657396
0^
#1657522
0L
#1657797
1N
#1658045
1D
#1660000
0!
0-
#1660852
0>
03
#1661041
0?
#1670000
1!
1-
#1670806
1>
13
#1671006
1?
#1673142
0.!
1,!
0-!
#1673604
1@
1B
#1673624
0A
#1674036
0C
#1674053
1A
#1674077
0@
#1674231
0B
#1674245
0A
#1675406
0D
#1680000
0!
0-
#1680852
0>
03
#1681041
0?
#1690000
1!
1-
#1690806
1>
13
#1691006
1?
#1693142
0E
0,!
07
#1693851
1C
#1694032
1B
#1694157
0F
#1695333
1D
#1696366
0C
#1697736
0D
#1700000
0!
0-
#1700852
0>
03
#1701041
0?
#1710000
1!
1-
#1710806
1>
13
#1711006
1?
#1713142
1.!
#1713624
0B
#1713970
1@
#1720000
0!
0-
#1720852
0>
03
#1721041
0?
#1730000
1!
1-
#1730806
1>
13
#1731006
1?
